…
    ## Warning: 1562 parsing failures.
    ## row                 col           expected actual
    ##  83 jobactivities       delimiter or quote       
    ## 431 CurrentGovName      delimiter or quote      B
    ## 431 CurrentGovName      delimiter or quote       
    ## 431 CurrentGovName_post delimiter or quote      B
    ## 431 CurrentGovName_post delimiter or quote       
    ## ... ................... .................. ......
    ## See problems(...) for more details.

``` r
CCES14
```

    ## # A tibble: 56,200 × 3
    ##    StateAbbr birthyr votereg
    ##        <chr>   <int>   <int>
    ## 1         NV    1986       1
    ## 2         MD    1971       2
    ## 3         MN    1992       3
    ## 4         AR    1974       1
    ## 5         CA    1979       1
    ## 6         IN    1957       1
    ## 7         NY    1951       1
    ## 8         NY    1994       3
    ## 9         TX    1995       2
    ## 10        MI    1954       1
    ## # ... with 56,190 more rows
…
    ## Warning: 5361 parsing failures.
    ## row                 col           expected actual
    ##  22 HouseCand2Name      delimiter or quote      T
    ##  22 HouseCand2Name      delimiter or quote       
    ##  22 HouseCand2Name_post delimiter or quote      T
    ##  22 HouseCand2Name_post delimiter or quote       
    ##  72 HouseCand1Name      delimiter or quote      C
    ## ... ................... .................. ......
    ## See problems(...) for more details.

``` r
CCES16
```

    ## # A tibble: 64,600 × 7
    ##    inputstate votereg birthyr AskParty_post votereg_post CC16_401 CC16_403
    ##         <int>   <int>   <int>         <int>        <int>    <int>    <int>
    ## 1          33       1    1969             1            1        5        1
    ## 2          22       1    1994             1            1        5        1
    ## 3          29       1    1964            NA           NA       NA       NA
    ## 4           1       1    1988            NA           NA       NA       NA
    ## 5           8       1    1982             1            1        5        2
    ## 6           1       2    1963             0            2       NA       NA
    ## 7          48       1    1962             0            1        5        1
    ## 8          42       2    1991            NA           NA       NA       NA
    ## 9          13       1    1963             0            1        5        1
    ## 10         42       1    1957             1            1        5        1
    ## # ... with 64,590 more rows
